\relax 
\providecommand\hyper@newdestlabel[2]{}
\providecommand*\new@tpo@label[2]{}
\providecommand\HyperFirstAtBeginDocument{\AtBeginDocument}
\HyperFirstAtBeginDocument{\ifx\hyper@anchor\@undefined
\global\let\oldcontentsline\contentsline
\gdef\contentsline#1#2#3#4{\oldcontentsline{#1}{#2}{#3}}
\global\let\oldnewlabel\newlabel
\gdef\newlabel#1#2{\newlabelxx{#1}#2}
\gdef\newlabelxx#1#2#3#4#5#6{\oldnewlabel{#1}{{#2}{#3}}}
\AtEndDocument{\ifx\hyper@anchor\@undefined
\let\contentsline\oldcontentsline
\let\newlabel\oldnewlabel
\fi}
\fi}
\global\let\hyper@last\relax 
\gdef\HyperFirstAtBeginDocument#1{#1}
\providecommand\HyField@AuxAddToFields[1]{}
\providecommand\HyField@AuxAddToCoFields[2]{}
\catcode `"\active 
\catcode `<\active 
\catcode `>\active 
\@nameuse{es@quoting}
\abx@aux@refcontext{none/global//global/global}
\@writefile{toc}{\boolfalse {citerequest}\boolfalse {citetracker}\boolfalse {pagetracker}\boolfalse {backtracker}\relax }
\@writefile{lof}{\boolfalse {citerequest}\boolfalse {citetracker}\boolfalse {pagetracker}\boolfalse {backtracker}\relax }
\@writefile{lot}{\boolfalse {citerequest}\boolfalse {citetracker}\boolfalse {pagetracker}\boolfalse {backtracker}\relax }
\babel@aux{spanish}{}
\@writefile{toc}{\defcounter {refsection}{0}\relax }\@writefile{toc}{\contentsline {section}{\numberline {1}Introducci\IeC {\'o}n al lenguaje}{2}{section.1}}
\@writefile{toc}{\defcounter {refsection}{0}\relax }\@writefile{toc}{\contentsline {section}{\numberline {2}Requisitos}{2}{section.2}}
\@writefile{toc}{\defcounter {refsection}{0}\relax }\@writefile{toc}{\contentsline {subsection}{\numberline {2.1}Identificadores y \IeC {\'A}mbitos de Definici\IeC {\'o}n}{2}{subsection.2.1}}
\newlabel{nombreFunciones}{{2.1}{6}{Identificadores y Ámbitos de Definición}{lstnumber.-11.4}{}}
\@writefile{toc}{\defcounter {refsection}{0}\relax }\@writefile{toc}{\contentsline {subsection}{\numberline {2.2}Tipos}{6}{subsection.2.2}}
\newlabel{opsubindice}{{2.2}{8}{Tipos}{lstnumber.-14.20}{}}
\@writefile{toc}{\defcounter {refsection}{0}\relax }\@writefile{toc}{\contentsline {subsection}{\numberline {2.3}Conjunto de Instrucciones del Lenguaje}{9}{subsection.2.3}}
\@writefile{toc}{\defcounter {refsection}{0}\relax }\@writefile{toc}{\contentsline {subsection}{\numberline {2.4}Gesti\IeC {\'o}n de Errores}{13}{subsection.2.4}}
\@writefile{toc}{\defcounter {refsection}{0}\relax }\@writefile{toc}{\contentsline {subsubsection}{\numberline {2.4.1}Ejemplo de errores l\IeC {\'e}xicos}{15}{subsubsection.2.4.1}}
\@writefile{toc}{\defcounter {refsection}{0}\relax }\@writefile{toc}{\contentsline {subsubsection}{\numberline {2.4.2}Ejemplo de errores de vinculaci\IeC {\'o}n}{15}{subsubsection.2.4.2}}
\@writefile{toc}{\defcounter {refsection}{0}\relax }\@writefile{toc}{\contentsline {subsubsection}{\numberline {2.4.3}Ejemplo de errores de chequeo de tipos}{15}{subsubsection.2.4.3}}
\@writefile{toc}{\defcounter {refsection}{0}\relax }\@writefile{toc}{\contentsline {section}{\numberline {3}Programas de Ejemplo}{17}{section.3}}
\@writefile{toc}{\defcounter {refsection}{0}\relax }\@writefile{toc}{\contentsline {subsection}{\numberline {3.1}Ejemplo 1: Recursi\IeC {\'o}n}{17}{subsection.3.1}}
\@writefile{toc}{\defcounter {refsection}{0}\relax }\@writefile{toc}{\contentsline {subsection}{\numberline {3.2}Ejemplo 2: Include, operaciones aritm\IeC {\'e}ticas, using, bucles y switch}{17}{subsection.3.2}}
\@writefile{toc}{\defcounter {refsection}{0}\relax }\@writefile{toc}{\contentsline {subsection}{\numberline {3.3}Ejemplo 3: Bucles, recursi\IeC {\'o}n y declaraci\IeC {\'o}n y llamada a funciones}{19}{subsection.3.3}}
\@writefile{toc}{\defcounter {refsection}{0}\relax }\@writefile{toc}{\contentsline {subsection}{\numberline {3.4}Ejemplo 4: Bucles, arrays (creaci\IeC {\'o}n y acceso), matrices, punteros y Clase}{19}{subsection.3.4}}
\@writefile{toc}{\defcounter {refsection}{0}\relax }\@writefile{toc}{\contentsline {subsection}{\numberline {3.5}Ejemplo 5: Clases, llamada a m\IeC {\'e}todos, recursi\IeC {\'o}n en m\IeC {\'e}todos y arrays}{22}{subsection.3.5}}
\@writefile{toc}{\defcounter {refsection}{0}\relax }\@writefile{toc}{\contentsline {subsection}{\numberline {3.6}Ejemplo 6: Todo junto}{24}{subsection.3.6}}
\global\@namedef{scr@dte@section@lastmaxnumwidth}{10.84047pt}
\global\@namedef{scr@dte@subsection@lastmaxnumwidth}{18.37163pt}
\global\@namedef{scr@dte@subsubsection@lastmaxnumwidth}{26.8883pt}
